{
  "project": {
    "version": "1.4.0",
    "name": "lbd-free-angular-cli"
  },
  "apps": [
    {
      "root": "src",
      "outDir": "dist/browser",
      "assets": [
        "assets",
        "favicon.ico"
      ],
      "index": "index.html",
      "main": "main.ts",
      "polyfills": "polyfills.ts",
      "test": "test.ts",
      "tsconfig": "tsconfig.json",
      "prefix": "app",
      "styles": [
        "assets/sass/light-bootstrap-dashboard.scss",
        "../node_modules/ng2-toastr/bundles/ng2-toastr.min.css",
        "styles.css"
      ],
      "scripts": [
        "../node_modules/jquery/dist/jquery.js",
        "../node_modules/bootstrap/dist/js/bootstrap.js",
        "../node_modules/bootstrap-notify/bootstrap-notify.js",
        "../node_modules/chartist/dist/chartist.js",
        "../node_modules/chart.js/dist/Chart.min.js"
      ],
      "environmentSource": "environments/environment.ts",
      "environments": {
        "dev": "environments/environment.ts",
        "prod": "environments/environment.prod.ts",
        "prodapi": "environments/environment.prodapi.ts",
        "stag": "environments/environment.stag.ts",
        "stagapi": "environments/environment.stagapi.ts"
      }
    },
    {
      "platform": "server",
      "root": "src",
      "outDir": "dist/server",
      "assets": [
        "assets",
        "favicon.ico"
      ],
      "index": "index.html",
      "main": "main.server.ts",
      "test": "test.ts",
      "tsconfig": "tsconfig.server.json",
      "testTsconfig": "tsconfig.spec.json",
      "prefix": "app",
      "styles": [
        "styles.css"
      ],
      "scripts": [],
      "environmentSource": "environments/environment.ts",
      "environments": {
        "dev": "environments/environment.ts",
        "prod": "environments/environment.prod.ts",
        "prodapi": "environments/environment.prodapi.ts",
        "stag": "environments/environment.stag.ts",
        "stagapi": "environments/environment.stagapi.ts"
      }
    }
  ],
  "e2e": {
    "protractor": {
      "config": "./protractor.conf.js"
    }
  },
  "lint": [
    {
      "files": "src/**/*.ts",
      "project": "src/tsconfig.json"
    },
    {
      "files": "e2e/**/*.ts",
      "project": "e2e/tsconfig.json"
    }
  ],
  "test": {
    "karma": {
      "config": "./karma.conf.js"
    }
  },
  "defaults": {
    "styleExt": "scss",
    "component": {}
  }
}
