{
  "host": "0.0.0.0",
  "port": 3997,
  "mongodb": {
    "uri": "mongodb://way2pay:way2pay2k18@49.156.147.105:27017/way2pay"
  },
  "cros": ["http://localhost:3997", "http://localhost:3996"],
  "jwtsecret": "W@mon^^7))9eYYY$riniVa$aRR@mAnuJ@NNn",
  "admin_jwtsecret": "W@mon^^7))9eYYY$$uper@dmin",
  "domain-images-cdn": "http://localhost:3005/",
  "pay_image_cdn": "https://imgcdn.way2money.com/image/pay/150/150/",
  "smsdb": {
    "hostname": "182.18.153.182",
    "username": "way2sms",
    "password": "waysmsawd#$%@",
    "database": "SMPP"
  },
  "images_cdn": "http://localhost:3997/",
  "redirect_url": "http://localhost:4600",
  "short_url": "http://172.16.20.33:8721/api/create-short-url?long_url=",
  "long_url_domain" : "http://localhost:4600/payment-by-links?payment_token=",
  "trans_status": ["initiated", "success", "failure", "cancel", "refund", "success", "success","success","success","success","success"]
}
