{
  "website": "https://businessstag.way2money.com",
  "host": "0.0.0.0",
  "port": 3998,
  "mongodb": {
    "uri": "mongodb://way2pay:E7XRbsjwisjary28@localhost:27017/way2pay"
  },
  "images_cdn": "https://businessstag.way2money.com/",
  "pay_image_cdn": "https://imgcdn.way2money.com/image/pay/150/150/",
  "smsdb": {
    "hostname": "182.18.153.182",
    "username": "way2sms",
    "password": "waysmsawd#$%@",
    "database": "SMPP"
  },
  "jwtsecret": "W@mon^^7))9eYYY$riniVa$aRR@mAnuJ@NNn",
  "cookieDomain": "*.way2money.com",
  "sms_sender": "WAYMNY",
  "redirect_url": "https://businessstag.way2money.com",
  "trans_status": ["initiated", "success", "failure", "cancel", "refund", "success", "success", "success", "success", "success", "success"]
}
